[gd_scene load_steps=4 format=2]

[ext_resource path="res://sprites/heartCell.png" type="Texture" id=1]
[ext_resource path="res://scripts/Player.gd" type="Script" id=2]
[ext_resource path="res://scenes/LifeGauge.tscn" type="PackedScene" id=3]

[node name="Player" type="Node2D"]
script = ExtResource( 2 )

[node name="LifeGauge" parent="." instance=ExtResource( 3 )]
mouse_filter = 2
value = 6.0
tint_progress = Color( 0, 0.180392, 1, 0.466667 )

[node name="HeartCell" type="Sprite" parent="."]
texture = ExtResource( 1 )

[node name="Camera2D" type="Camera2D" parent="."]
current = true
