[gd_scene load_steps=3 format=2]

[ext_resource path="res://tiles/hex.tres" type="TileSet" id=1]
[ext_resource path="res://scripts/HexTileMap.gd" type="Script" id=2]

[node name="HexTileMap" type="TileMap"]
tile_set = ExtResource( 1 )
cell_size = Vector2( 97, 110 )
cell_half_offset = 1
centered_textures = true
format = 1
tile_data = PoolIntArray( 0, 0, 0, 1, 0, 0, 2, 0, 0, 3, 0, 0, 131072, 0, 0, 131073, 0, 0, 131074, 0, 0, 131075, 0, 0 )
script = ExtResource( 2 )
